%!PS-Adobe-3.0 EPSF-3.0
%%Creator: MATLAB, The Mathworks, Inc. Version 7.8.0.347 (R2009a). Operating System: Linux 2.6.9-89.33.1.ELsmp #1 SMP Thu Dec 2 01:05:15 CST 2010 i686.
%%Title: /home/wassamon/BellShapeFns/shape16.eps
%%CreationDate: 09/18/2012  15:14:44
%%DocumentNeededFonts: Helvetica
%%DocumentProcessColors: Cyan Magenta Yellow Black
%%LanguageLevel: 2
%%Pages: 1
%%BoundingBox:    73   252   521   589
%%EndComments

%%BeginProlog
% MathWorks dictionary
/MathWorks 160 dict begin
% definition operators
/bdef {bind def} bind def
/ldef {load def} bind def
/xdef {exch def} bdef
/xstore {exch store} bdef
% operator abbreviations
/c  /clip ldef
/cc /concat ldef
/cp /closepath ldef
/gr /grestore ldef
/gs /gsave ldef
/mt /moveto ldef
/np /newpath ldef
/cm /currentmatrix ldef
/sm /setmatrix ldef
/rm /rmoveto ldef
/rl /rlineto ldef
/s {show newpath} bdef
/sc {setcmykcolor} bdef
/sr /setrgbcolor ldef
/sg /setgray ldef
/w /setlinewidth ldef
/j /setlinejoin ldef
/cap /setlinecap ldef
/rc {rectclip} bdef
/rf {rectfill} bdef
% page state control
/pgsv () def
/bpage {/pgsv save def} bdef
/epage {pgsv restore} bdef
/bplot /gsave ldef
/eplot {stroke grestore} bdef
% orientation switch
/portraitMode 0 def /landscapeMode 1 def /rotateMode 2 def
% coordinate system mappings
/dpi2point 0 def
% font control
/FontSize 0 def
/FMS {/FontSize xstore findfont [FontSize 0 0 FontSize neg 0 0]
  makefont setfont} bdef
/reencode {exch dup where {pop load} {pop StandardEncoding} ifelse
  exch dup 3 1 roll findfont dup length dict begin
  { 1 index /FID ne {def}{pop pop} ifelse } forall
  /Encoding exch def currentdict end definefont pop} bdef
/isroman {findfont /CharStrings get /Agrave known} bdef
/FMSR {3 1 roll 1 index dup isroman {reencode} {pop pop} ifelse
  exch FMS} bdef
/csm {1 dpi2point div -1 dpi2point div scale neg translate
 dup landscapeMode eq {pop -90 rotate}
  {rotateMode eq {90 rotate} if} ifelse} bdef
% line types: solid, dotted, dashed, dotdash
/SO { [] 0 setdash } bdef
/DO { [.5 dpi2point mul 4 dpi2point mul] 0 setdash } bdef
/DA { [6 dpi2point mul] 0 setdash } bdef
/DD { [.5 dpi2point mul 4 dpi2point mul 6 dpi2point mul 4
  dpi2point mul] 0 setdash } bdef
% macros for lines and objects
/L {lineto stroke} bdef
/MP {3 1 roll moveto 1 sub {rlineto} repeat} bdef
/AP {{rlineto} repeat} bdef
/PDlw -1 def
/W {/PDlw currentlinewidth def setlinewidth} def
/PP {closepath eofill} bdef
/DP {closepath stroke} bdef
/MR {4 -2 roll moveto dup  0 exch rlineto exch 0 rlineto
  neg 0 exch rlineto closepath} bdef
/FR {MR stroke} bdef
/PR {MR fill} bdef
/L1i {{currentfile picstr readhexstring pop} image} bdef
/tMatrix matrix def
/MakeOval {newpath tMatrix currentmatrix pop translate scale
0 0 1 0 360 arc tMatrix setmatrix} bdef
/FO {MakeOval stroke} bdef
/PO {MakeOval fill} bdef
/PD {currentlinewidth 2 div 0 360 arc fill
   PDlw -1 eq not {PDlw w /PDlw -1 def} if} def
/FA {newpath tMatrix currentmatrix pop translate scale
  0 0 1 5 -2 roll arc tMatrix setmatrix stroke} bdef
/PA {newpath tMatrix currentmatrix pop	translate 0 0 moveto scale
  0 0 1 5 -2 roll arc closepath tMatrix setmatrix fill} bdef
/FAn {newpath tMatrix currentmatrix pop translate scale
  0 0 1 5 -2 roll arcn tMatrix setmatrix stroke} bdef
/PAn {newpath tMatrix currentmatrix pop translate 0 0 moveto scale
  0 0 1 5 -2 roll arcn closepath tMatrix setmatrix fill} bdef
/vradius 0 def /hradius 0 def /lry 0 def
/lrx 0 def /uly 0 def /ulx 0 def /rad 0 def
/MRR {/vradius xdef /hradius xdef /lry xdef /lrx xdef /uly xdef
  /ulx xdef newpath tMatrix currentmatrix pop ulx hradius add uly
  vradius add translate hradius vradius scale 0 0 1 180 270 arc 
  tMatrix setmatrix lrx hradius sub uly vradius add translate
  hradius vradius scale 0 0 1 270 360 arc tMatrix setmatrix
  lrx hradius sub lry vradius sub translate hradius vradius scale
  0 0 1 0 90 arc tMatrix setmatrix ulx hradius add lry vradius sub
  translate hradius vradius scale 0 0 1 90 180 arc tMatrix setmatrix
  closepath} bdef
/FRR {MRR stroke } bdef
/PRR {MRR fill } bdef
/MlrRR {/lry xdef /lrx xdef /uly xdef /ulx xdef /rad lry uly sub 2 div def
  newpath tMatrix currentmatrix pop ulx rad add uly rad add translate
  rad rad scale 0 0 1 90 270 arc tMatrix setmatrix lrx rad sub lry rad
  sub translate rad rad scale 0 0 1 270 90 arc tMatrix setmatrix
  closepath} bdef
/FlrRR {MlrRR stroke } bdef
/PlrRR {MlrRR fill } bdef
/MtbRR {/lry xdef /lrx xdef /uly xdef /ulx xdef /rad lrx ulx sub 2 div def
  newpath tMatrix currentmatrix pop ulx rad add uly rad add translate
  rad rad scale 0 0 1 180 360 arc tMatrix setmatrix lrx rad sub lry rad
  sub translate rad rad scale 0 0 1 0 180 arc tMatrix setmatrix
  closepath} bdef
/FtbRR {MtbRR stroke } bdef
/PtbRR {MtbRR fill } bdef
/stri 6 array def /dtri 6 array def
/smat 6 array def /dmat 6 array def
/tmat1 6 array def /tmat2 6 array def /dif 3 array def
/asub {/ind2 exch def /ind1 exch def dup dup
  ind1 get exch ind2 get sub exch } bdef
/tri_to_matrix {
  2 0 asub 3 1 asub 4 0 asub 5 1 asub
  dup 0 get exch 1 get 7 -1 roll astore } bdef
/compute_transform {
  dmat dtri tri_to_matrix tmat1 invertmatrix 
  smat stri tri_to_matrix tmat2 concatmatrix } bdef
/ds {stri astore pop} bdef
/dt {dtri astore pop} bdef
/db {2 copy /cols xdef /rows xdef mul dup 3 mul string
  currentfile 
  3 index 0 eq {/ASCIIHexDecode filter}
  {/ASCII85Decode filter 3 index 2 eq {/RunLengthDecode filter} if }
  ifelse exch readstring pop
  dup 0 3 index getinterval /rbmap xdef
  dup 2 index dup getinterval /gbmap xdef
  1 index dup 2 mul exch getinterval /bbmap xdef pop pop}bdef
/it {gs np dtri aload pop moveto lineto lineto cp c
  cols rows 8 compute_transform 
  rbmap gbmap bbmap true 3 colorimage gr}bdef
/il {newpath moveto lineto stroke}bdef
currentdict end def
%%EndProlog

%%BeginSetup
MathWorks begin

0 cap

end
%%EndSetup

%%Page: 1 1
%%BeginPageSetup
%%PageBoundingBox:    73   252   521   589
MathWorks begin
bpage
%%EndPageSetup

%%BeginObject: obj1
bplot

/dpi2point 12 def
portraitMode 0876 7068 csm

    0     0  5376  4034 rc
85 dict begin %Colortable dictionary
/c0 { 0.000000 0.000000 0.000000 sr} bdef
/c1 { 1.000000 1.000000 1.000000 sr} bdef
/c2 { 0.900000 0.000000 0.000000 sr} bdef
/c3 { 0.000000 0.820000 0.000000 sr} bdef
/c4 { 0.000000 0.000000 0.800000 sr} bdef
/c5 { 0.910000 0.820000 0.320000 sr} bdef
/c6 { 1.000000 0.260000 0.820000 sr} bdef
/c7 { 0.000000 0.820000 0.820000 sr} bdef
c0
1 j
1 sg
   0    0 5377 4035 rf
6 w
-2431 -900 -1735 1262 2432 900 2433 1428 4 MP
PP
1734 -1262 -2431 -900 -1735 1262 2432 900 2433 1428 5 MP stroke
0 1126 2432 899 0 -1125 2433 1428 4 MP
PP
-2432 -900 0 1126 2432 899 0 -1125 2433 1428 5 MP stroke
0 1126 -1734 1261 0 -1125 2433 1428 4 MP
PP
1734 -1262 0 1126 -1734 1261 0 -1125 2433 1428 5 MP stroke
4 w
DO
0 sg
4865 2328 mt 2433 1428 L
2433 1428 mt 2433  303 L
4431 2643 mt 1999 1744 L
1999 1744 mt 1999  618 L
3997 2959 mt 1566 2059 L
1566 2059 mt 1566  933 L
3564 3274 mt 1132 2374 L
1132 2374 mt 1132 1249 L
3130 3590 mt  699 2690 L
 699 2690 mt  699 1564 L
 699 2690 mt 2433 1428 L
2433 1428 mt 2433  303 L
1185 2870 mt 2919 1608 L
2919 1608 mt 2919  482 L
1671 3050 mt 3406 1788 L
3406 1788 mt 3406  662 L
2157 3230 mt 3892 1968 L
3892 1968 mt 3892  842 L
2644 3410 mt 4378 2148 L
4378 2148 mt 4378 1022 L
3130 3590 mt 4865 2328 L
4865 2328 mt 4865 1202 L
 699 2690 mt 2433 1428 L
2433 1428 mt 4865 2328 L
 699 2314 mt 2433 1053 L
2433 1053 mt 4865 1953 L
 699 1939 mt 2433  678 L
2433  678 mt 4865 1578 L
 699 1564 mt 2433  303 L
2433  303 mt 4865 1202 L
SO
6 w
4865 2328 mt 3130 3590 L
 699 2690 mt 3130 3590 L
 699 2690 mt  699 1564 L
4865 2328 mt 4925 2351 L
%%IncludeResource: font Helvetica
/Helvetica /ISOLatin1Encoding 120 FMSR

4958 2474 mt 
(0) s
4431 2643 mt 4492 2666 L
4524 2789 mt 
(0.5) s
3997 2959 mt 4058 2981 L
4090 3104 mt 
(1) s
3564 3274 mt 3624 3297 L
3657 3420 mt 
(1.5) s
3130 3590 mt 3191 3612 L
3223 3735 mt 
(2) s
 699 2690 mt  646 2728 L
 552 2859 mt 
(0) s
1185 2870 mt 1132 2908 L
 938 3039 mt 
(0.1) s
1671 3050 mt 1619 3088 L
1425 3219 mt 
(0.2) s
2157 3230 mt 2105 3268 L
1911 3399 mt 
(0.3) s
2644 3410 mt 2591 3448 L
2397 3579 mt 
(0.4) s
3130 3590 mt 3078 3628 L
2884 3759 mt 
(0.5) s
 699 2690 mt  638 2667 L
 302 2699 mt 
(-0.06) s
 699 2314 mt  638 2292 L
 302 2324 mt 
(-0.04) s
 699 1939 mt  638 1917 L
 302 1949 mt 
(-0.02) s
 699 1564 mt  638 1541 L
 539 1573 mt 
(0) s
gs 699 303 4167 3288 rc
/c8 { 0.500000 0.000000 0.000000 sr} bdef
c8
463 -203 -192 303 4594 1102 3 MP
PP
0 sg
-271 -100 463 -203 -192 303 4594 1102 4 MP stroke
c8
463 -332 -193 432 4324 1002 3 MP
PP
0 sg
-270 -100 463 -332 -193 432 4324 1002 4 MP stroke
c8
271 -29 -463 332 4594 1102 3 MP
PP
0 sg
192 -303 271 -29 -463 332 4594 1102 4 MP stroke
/c9 { 0.250000 1.000000 0.750000 sr} bdef
c9
-271 29 463 -314 3939 1719 3 MP
PP
0 sg
-192 285 -271 29 463 -314 3939 1719 4 MP stroke
/c10 { 0.750000 1.000000 0.250000 sr} bdef
c10
193 -432 270 55 3861 1379 3 MP
PP
0 sg
-463 377 193 -432 270 55 3861 1379 4 MP stroke
c8
-193 477 -270 -100 4324 1002 3 MP
PP
0 sg
463 -377 -193 477 -270 -100 4324 1002 4 MP stroke
c9
-270 -55 192 -285 3939 1719 3 MP
PP
0 sg
78 340 -270 -55 192 -285 3939 1719 4 MP stroke
c10
-270 -100 193 -477 3861 1379 3 MP
PP
0 sg
77 577 -270 -100 193 -477 3861 1379 4 MP stroke
/c11 { 0.000000 0.375000 1.000000 sr} bdef
c11
463 -222 -193 154 3669 1787 3 MP
PP
0 sg
-270 68 463 -222 -193 154 3669 1787 4 MP stroke
c10
270 -68 -192 408 3861 1379 3 MP
PP
0 sg
-78 -340 270 -68 -192 408 3861 1379 4 MP stroke
c10
-193 459 -77 -577 3861 1379 3 MP
PP
0 sg
270 118 -193 459 -77 -577 3861 1379 4 MP stroke
/c12 { 0.000000 0.312500 1.000000 sr} bdef
c12
192 -408 271 87 3398 1700 3 MP
PP
0 sg
-463 321 192 -408 271 87 3398 1700 4 MP stroke
c10
-193 439 -270 -118 3861 1379 3 MP
PP
0 sg
463 -321 -193 439 -270 -118 3861 1379 4 MP stroke
c8
-193 399 -270 -100 3784 802 3 MP
PP
0 sg
463 -299 -193 399 -270 -100 3784 802 4 MP stroke
/c13 { 0.875000 1.000000 0.125000 sr} bdef
c13
-463 299 193 -459 3591 1261 3 MP
PP
0 sg
270 160 -463 299 193 -459 3591 1261 4 MP stroke
c12
-463 201 193 -154 3476 1941 3 MP
PP
0 sg
270 -47 -463 201 193 -154 3476 1941 4 MP stroke
/c14 { 0.000000 0.000000 0.562500 sr} bdef
c14
-271 -87 463 -201 3206 1988 3 MP
PP
0 sg
-192 288 -271 -87 463 -201 3206 1988 4 MP stroke
c13
-193 403 -270 -160 3591 1261 3 MP
PP
0 sg
463 -243 -193 403 -270 -160 3591 1261 4 MP stroke
c12
-463 243 193 -439 3398 1700 3 MP
PP
0 sg
270 196 -463 243 193 -439 3398 1700 4 MP stroke
/c15 { 1.000000 0.812500 0.000000 sr} bdef
c15
-271 -100 193 -399 3321 1101 3 MP
PP
0 sg
78 499 -271 -100 193 -399 3321 1101 4 MP stroke
/c16 { 0.000000 0.812500 1.000000 sr} bdef
c16
271 160 -193 324 3128 1504 3 MP
PP
0 sg
-78 -484 271 160 -193 324 3128 1504 4 MP stroke
/c17 { 0.000000 0.187500 1.000000 sr} bdef
c17
-271 -160 193 -11 3013 1999 3 MP
PP
0 sg
78 171 -271 -160 193 -11 3013 1999 4 MP stroke
c16
192 -288 78 484 3128 1504 3 MP
PP
0 sg
-270 -196 192 -288 78 484 3128 1504 4 MP stroke
c17
-270 47 463 -58 3013 1999 3 MP
PP
0 sg
-193 11 -270 47 463 -58 3013 1999 4 MP stroke
c8
270 182 -192 317 3243 602 3 MP
PP
0 sg
-78 -499 270 182 -192 317 3243 602 4 MP stroke
c16
-270 -182 193 -403 3128 1504 3 MP
PP
0 sg
77 585 -270 -182 193 -403 3128 1504 4 MP stroke
c8
192 -317 78 417 2973 502 3 MP
PP
0 sg
-270 -100 192 -317 78 417 2973 502 4 MP stroke
/c18 { 1.000000 0.375000 0.000000 sr} bdef
c18
270 257 -193 328 3051 919 3 MP
PP
0 sg
-77 -585 270 257 -193 328 3051 919 4 MP stroke
c16
-270 -257 463 -37 2665 1541 3 MP
PP
0 sg
-193 294 -270 -257 463 -37 2665 1541 4 MP stroke
/c19 { 0.000000 0.000000 0.875000 sr} bdef
c19
-463 37 193 -324 2935 1828 3 MP
PP
0 sg
270 287 -463 37 193 -324 2935 1828 4 MP stroke
/c20 { 1.000000 0.500000 0.000000 sr} bdef
c20
193 -328 270 271 2588 976 3 MP
PP
0 sg
-463 57 193 -328 270 271 2588 976 4 MP stroke
c18
-193 242 -270 -185 3051 919 3 MP
PP
0 sg
463 -57 -193 242 -270 -185 3051 919 4 MP stroke
c8
270 185 -192 232 2973 502 3 MP
PP
0 sg
-78 -417 270 185 -192 232 2973 502 4 MP stroke
/c21 { 0.000000 0.437500 1.000000 sr} bdef
c21
-78 -451 270 238 2473 1754 3 MP
PP
0 sg
-192 213 -78 -451 270 238 2473 1754 4 MP stroke
/c22 { 0.000000 0.000000 0.750000 sr} bdef
c22
-193 86 -270 -238 2743 1992 3 MP
PP
0 sg
463 152 -193 86 -270 -238 2743 1992 4 MP stroke
c22
-270 -287 192 -164 2743 1992 3 MP
PP
0 sg
78 451 -270 -287 192 -164 2743 1992 4 MP stroke
c19
270 7 -192 164 2935 1828 3 MP
PP
0 sg
-78 -171 270 7 -192 164 2935 1828 4 MP stroke
c22
463 87 -193 -80 2743 1992 3 MP
PP
0 sg
-270 -7 463 87 -193 -80 2743 1992 4 MP stroke
c8
-193 167 -270 -100 2973 502 3 MP
PP
0 sg
463 -67 -193 167 -270 -100 2973 502 4 MP stroke
c8
271 165 -463 67 2973 502 3 MP
PP
0 sg
192 -232 271 165 -463 67 2973 502 4 MP stroke
/c23 { 0.625000 1.000000 0.375000 sr} bdef
c23
77 565 -270 -271 2858 1247 3 MP
PP
0 sg
193 -294 77 565 -270 -271 2858 1247 4 MP stroke
/c24 { 0.750000 0.000000 0.000000 sr} bdef
c24
193 -242 270 237 2318 739 3 MP
PP
0 sg
-463 5 193 -242 270 237 2318 739 4 MP stroke
/c25 { 0.937500 0.000000 0.000000 sr} bdef
c25
-192 170 -271 -165 2781 734 3 MP
PP
0 sg
463 -5 -192 170 -271 -165 2781 734 4 MP stroke
/c26 { 0.000000 0.750000 1.000000 sr} bdef
c26
193 80 270 72 2280 1840 3 MP
PP
0 sg
-463 -152 193 80 270 72 2280 1840 4 MP stroke
c8
463 -41 -193 140 2433 303 3 MP
PP
0 sg
-270 -99 463 -41 -193 140 2433 303 4 MP stroke
c8
193 -167 270 126 2240 443 3 MP
PP
0 sg
-463 41 193 -167 270 126 2240 443 4 MP stroke
c20
270 334 -193 231 2588 976 3 MP
PP
0 sg
-77 -565 270 334 -193 231 2588 976 4 MP stroke
c16
271 348 -463 -135 2665 1541 3 MP
PP
0 sg
192 -213 271 348 -463 -135 2665 1541 4 MP stroke
c16
-193 199 -270 -334 2665 1541 3 MP
PP
0 sg
463 135 -193 199 -270 -334 2665 1541 4 MP stroke
c20
77 468 -270 -237 2588 976 3 MP
PP
0 sg
193 -231 77 468 -270 -237 2588 976 4 MP stroke
c10
270 287 -192 147 2202 1406 3 MP
PP
0 sg
-78 -434 270 287 -192 147 2202 1406 4 MP stroke
/c27 { 0.937500 1.000000 0.062500 sr} bdef
c27
-270 -287 193 88 2087 1752 3 MP
PP
0 sg
77 199 -270 -287 193 88 2087 1752 4 MP stroke
c26
-271 -348 193 -86 2280 1840 3 MP
PP
0 sg
78 434 -271 -348 193 -86 2280 1840 4 MP stroke
/c28 { 0.000000 0.875000 1.000000 sr} bdef
c28
-193 -88 -270 -72 2550 1912 3 MP
PP
0 sg
463 160 -193 -88 -270 -72 2550 1912 4 MP stroke
c24
-270 -126 192 -170 2318 739 3 MP
PP
0 sg
78 296 -270 -126 192 -170 2318 739 4 MP stroke
/c29 { 1.000000 0.937500 0.000000 sr} bdef
c29
-193 168 -77 -468 2395 1207 3 MP
PP
0 sg
270 300 -193 168 -77 -468 2395 1207 4 MP stroke
c29
270 337 -463 -138 2395 1207 3 MP
PP
0 sg
193 -199 270 337 -463 -138 2395 1207 4 MP stroke
c29
-193 162 -270 -300 2395 1207 3 MP
PP
0 sg
463 138 -193 162 -270 -300 2395 1207 4 MP stroke
c8
463 16 -192 140 2047 583 3 MP
PP
0 sg
-271 -156 463 16 -192 140 2047 583 4 MP stroke
c8
193 -168 270 184 1855 723 3 MP
PP
0 sg
-463 -16 193 -168 270 184 1855 723 4 MP stroke
c24
-193 140 -78 -296 2318 739 3 MP
PP
0 sg
271 156 -193 140 -78 -296 2318 739 4 MP stroke
/c30 { 0.687500 1.000000 0.312500 sr} bdef
c30
-270 -337 192 -147 2010 1553 3 MP
PP
0 sg
78 484 -270 -337 192 -147 2010 1553 4 MP stroke
c25
-193 140 -270 -184 2125 907 3 MP
PP
0 sg
463 44 -193 140 -270 -184 2125 907 4 MP stroke
c8
193 -162 270 206 1662 863 3 MP
PP
0 sg
-463 -44 193 -162 270 206 1662 863 4 MP stroke
c29
463 144 -193 -19 1817 1627 3 MP
PP
0 sg
-270 -125 463 144 -193 -19 1817 1627 4 MP stroke
c30
270 125 -193 74 2010 1553 3 MP
PP
0 sg
-77 -199 270 125 -193 74 2010 1553 4 MP stroke
c29
-463 -202 193 -74 1817 1627 3 MP
PP
0 sg
270 276 -463 -202 193 -74 1817 1627 4 MP stroke
/c31 { 1.000000 0.062500 0.000000 sr} bdef
c31
-270 -334 463 202 1547 1351 3 MP
PP
0 sg
-193 132 -270 -334 463 202 1547 1351 4 MP stroke
c31
-78 -484 270 334 1740 1219 3 MP
PP
0 sg
-192 150 -78 -484 270 334 1740 1219 4 MP stroke
c8
463 66 -193 140 1662 863 3 MP
PP
0 sg
-270 -206 463 66 -193 140 1662 863 4 MP stroke
c8
192 -150 271 216 1469 1003 3 MP
PP
0 sg
-463 -66 192 -150 271 216 1469 1003 4 MP stroke
/c32 { 1.000000 0.125000 0.000000 sr} bdef
c32
-270 -276 193 19 1624 1608 3 MP
PP
0 sg
77 257 -270 -276 193 19 1624 1608 4 MP stroke
c31
-271 -216 193 -132 1547 1351 3 MP
PP
0 sg
78 348 -271 -216 193 -132 1547 1351 4 MP stroke
/c33 { 0.875000 0.000000 0.000000 sr} bdef
c33
463 64 -193 83 1354 1461 3 MP
PP
0 sg
-270 -147 463 64 -193 83 1354 1461 4 MP stroke
c31
270 147 -193 110 1547 1351 3 MP
PP
0 sg
-77 -257 270 147 -193 110 1547 1351 4 MP stroke
c8
463 67 -193 141 1277 1143 3 MP
PP
0 sg
-270 -208 463 67 -193 141 1277 1143 4 MP stroke
c8
193 -110 270 177 1084 1284 3 MP
PP
0 sg
-463 -67 193 -110 270 177 1084 1284 4 MP stroke
c31
-192 140 -78 -348 1547 1351 3 MP
PP
0 sg
270 208 -192 140 -78 -348 1547 1351 4 MP stroke
c33
-193 140 -270 -177 1354 1461 3 MP
PP
0 sg
463 37 -193 140 -270 -177 1354 1461 4 MP stroke
c8
193 -83 270 120 891 1424 3 MP
PP
0 sg
-463 -37 193 -83 270 120 891 1424 4 MP stroke
/c34 { 0.562500 0.000000 0.000000 sr} bdef
c34
-192 140 -270 -120 1161 1544 3 MP
PP
0 sg
462 -20 -192 140 -270 -120 1161 1544 4 MP stroke
gr


end %%Color Dict

eplot
%%EndObject

epage
end

showpage

%%Trailer
%%EOF
